<?xml version="1.0" encoding="utf-8"?>
<!-- Generator: Adobe Illustrator 24.1.2, SVG Export Plug-In . SVG Version: 6.00 Build 0)  -->
<svg version="1.1" id="Layer_1" xmlns="http://www.w3.org/2000/svg" xmlns:xlink="http://www.w3.org/1999/xlink" x="0px" y="0px"
	 viewBox="0 0 512 512" style="enable-background:new 0 0 512 512;" xml:space="preserve">
<style type="text/css">
	.st0{fill:#ED2991;stroke:#000000;stroke-miterlimit:10;}
	.st1{fill:#FFFFFF;stroke:#FFFFFF;stroke-width:5;stroke-miterlimit:10;}
</style>
<rect class="st0" width="512" height="512"/>
<g>
	<path class="st1" d="M56.41,337.42c-3.76-3.52-6.28-7.74-7.56-12.66c-1.28-4.92-0.56-10.78,2.16-17.58
		c3.84-9.68,8.56-19.16,14.16-28.44s11.8-18.52,18.6-27.72c20.96-28.08,44.56-54.44,70.8-79.08c11.92-11.28,24.3-21.9,37.14-31.86
		c12.84-9.96,26.5-18.74,40.98-26.34c5.44-2.8,10.84-5.3,16.2-7.5c5.36-2.2,10.76-3.98,16.2-5.34c10.64-2.72,17.92-0.56,21.84,6.48
		c3.12,6,4.86,12.52,5.22,19.56c0.36,7.04-0.82,14.68-3.54,22.92c-3.68,11.44-7.96,22.88-12.84,34.32
		c-4.88,11.44-10.32,22.96-16.32,34.56c-0.72,1.44-1.44,2.9-2.16,4.38c-0.72,1.48-1.4,2.98-2.04,4.5c-0.16,0.4-0.24,0.8-0.24,1.2
		c0,0.4-0.04,0.96-0.12,1.68c3.6-1.92,7.12-3.8,10.56-5.64c3.44-1.84,6.8-3.68,10.08-5.52c9.92-5.36,19.74-10.5,29.46-15.42
		s19.66-9.5,29.82-13.74c8.88-3.76,17.74-7.44,26.58-11.04c8.84-3.6,17.74-7.2,26.7-10.8c0.72-0.24,1.84-0.6,3.36-1.08
		c1.52-0.48,3.12-0.92,4.8-1.32c1.68-0.4,3.22-0.66,4.62-0.78c1.4-0.12,2.3-0.02,2.7,0.3c0.32,0.32-0.14,0.82-1.38,1.5
		c-1.24,0.68-2.78,1.38-4.62,2.1c-1.84,0.72-3.66,1.42-5.46,2.1c-1.8,0.68-3.06,1.18-3.78,1.5c-7.52,3.04-14.98,6.02-22.38,8.94
		c-7.4,2.92-14.86,5.86-22.38,8.82c-13.92,5.6-27.62,11.76-41.1,18.48c-13.48,6.72-27.02,13.84-40.62,21.36
		c-4.4,2.48-7.96,5.16-10.68,8.04c-2.72,2.88-5.04,6.28-6.96,10.2c-2.96,6.32-5.94,12.62-8.94,18.9c-3,6.28-6.18,12.54-9.54,18.78
		c-5.84,11.04-11.7,22-17.58,32.88s-11.78,21.8-17.7,32.76c-4.32,8-8.6,16-12.84,24c-4.24,8-8.56,16-12.96,24
		c-3.52,6.24-7.16,12.48-10.92,18.72c-3.76,6.24-7.4,12.48-10.92,18.72c-1.28,2.24-2.66,3.98-4.14,5.22
		c-1.48,1.24-2.94,2.06-4.38,2.46c-1.44,0.4-2.76,0.38-3.96-0.06s-2.16-1.22-2.88-2.34c-1.52-1.92-2.66-4.14-3.42-6.66
		c-0.76-2.52-1.14-5.14-1.14-7.86c-0.32-11.92,0.62-24.06,2.82-36.42c2.2-12.36,5.82-25.14,10.86-38.34c4-10.4,8.9-20.54,14.7-30.42
		c5.8-9.88,13.1-19.58,21.9-29.1c7.04-7.68,14.52-14.78,22.44-21.3c7.92-6.52,16.16-12.78,24.72-18.78
		c3.6-2.48,7.16-4.94,10.68-7.38c3.52-2.44,7.12-4.82,10.8-7.14c2.08-1.28,3.74-2.66,4.98-4.14c1.24-1.48,2.22-3.14,2.94-4.98
		c4.8-11.04,9.62-22.02,14.46-32.94c4.84-10.92,9.58-21.9,14.22-32.94c2.32-5.44,4.14-10.76,5.46-15.96
		c1.32-5.2,2.06-10.32,2.22-15.36c0.16-3.84-0.16-7.36-0.96-10.56c-0.8-3.2-1.92-6.28-3.36-9.24c-3.28-6.8-10.04-9.04-20.28-6.72
		c-5.44,1.2-10.84,2.96-16.2,5.28c-5.36,2.32-10.72,4.88-16.08,7.68c-10.96,5.76-21.32,12.28-31.08,19.56
		c-9.76,7.28-19.32,15.08-28.68,23.4c-12.4,10.96-24.2,22.22-35.4,33.78c-11.2,11.56-21.84,23.58-31.92,36.06
		c-4.24,5.28-8.14,10.24-11.7,14.88c-3.56,4.64-6.88,9.26-9.96,13.86c-3.08,4.6-6.02,9.32-8.82,14.16
		c-2.8,4.84-5.56,10.06-8.28,15.66c-1.44,3.28-2.72,6.4-3.84,9.36c-1.12,2.96-1.92,5.8-2.4,8.52c-0.48,2.72-0.6,5.34-0.36,7.86
		c0.24,2.52,0.96,4.94,2.16,7.26c0.48,0.48,1.02,0.86,1.62,1.14c0.6,0.28,1.24,0.52,1.92,0.72s1.38,0.42,2.1,0.66
		c0.72,0.24,1.44,0.6,2.16,1.08c0.64,0.88,0.98,1.76,1.02,2.64c0.04,0.88-0.12,1.76-0.48,2.64c-0.36,0.88-0.82,1.72-1.38,2.52
		c-0.56,0.8-1.12,1.48-1.68,2.04c-0.64,1.12-1.74,1.62-3.3,1.5C59.35,338.44,57.85,338.06,56.41,337.42z M134.89,440.02
		c0.88-1.2,1.74-2.36,2.58-3.48c0.84-1.12,1.58-2.24,2.22-3.36c5.52-9.28,11-18.52,16.44-27.72c5.44-9.2,10.72-18.52,15.84-27.96
		c8.48-15.6,16.8-31.16,24.96-46.68c8.16-15.52,16.36-31.12,24.6-46.8c2.48-4.64,5.02-9.28,7.62-13.92
		c2.6-4.64,5.06-9.32,7.38-14.04c1.04-2,2.1-4.06,3.18-6.18c1.08-2.12,1.74-4.34,1.98-6.66c-6.48,4.48-12.78,8.72-18.9,12.72
		c-6.12,4-12.1,8.24-17.94,12.72c-12.48,9.6-23.44,19.86-32.88,30.78c-9.44,10.92-17.28,22.82-23.52,35.7
		c-5.92,12.32-10.54,24.34-13.86,36.06c-3.32,11.72-5.46,23.3-6.42,34.74c-0.48,4.64-0.62,9.16-0.42,13.56
		c0.2,4.4,0.42,8.8,0.66,13.2c0.16,1.76,0.7,3.32,1.62,4.68C130.95,438.74,132.57,439.62,134.89,440.02z"/>
	<path class="st1" d="M323.89,269.62c1.36-0.88,3.14-2.02,5.34-3.42c2.2-1.4,4.58-2.96,7.14-4.68c2.56-1.72,5.22-3.48,7.98-5.28
		c2.76-1.8,5.42-3.54,7.98-5.22c2.56-1.68,4.94-3.22,7.14-4.62c2.2-1.4,3.98-2.54,5.34-3.42c1.04-0.56,1.5-0.74,1.38-0.54
		c-0.12,0.2-0.58,0.64-1.38,1.32c-0.8,0.68-1.84,1.52-3.12,2.52c-1.28,1-2.6,2.02-3.96,3.06c-1.36,1.04-2.66,2.04-3.9,3
		c-1.24,0.96-2.22,1.72-2.94,2.28c-0.88,0.72-1.9,1.52-3.06,2.4c-1.16,0.88-2.18,1.64-3.06,2.28c-2.64,2.08-5.3,4.12-7.98,6.12
		c-2.68,2-5.42,3.92-8.22,5.76c-1.92,1.36-3.42,2.78-4.5,4.26c-1.08,1.48-1.86,3.22-2.34,5.22c-1.84,8.32-4.72,16.18-8.64,23.58
		c-3.92,7.4-8.7,14.44-14.34,21.12c-5.64,6.68-12.04,13.04-19.2,19.08c-7.16,6.04-14.9,11.78-23.22,17.22
		c-3.52,2.32-7.28,4.28-11.28,5.88c-4,1.6-7.96,3.08-11.88,4.44c-4.08,1.36-6.74,1.34-7.98-0.06c-1.24-1.4-1.06-4.02,0.54-7.86
		c1.52-3.84,3.52-7.56,6-11.16c7.76-11.44,16.6-22,26.52-31.68s20.6-18.96,32.04-27.84c3.04-2.32,6.12-4.62,9.24-6.9
		s6.32-4.46,9.6-6.54c2.8-1.84,4.76-3.72,5.88-5.64c1.12-1.92,1.6-4.04,1.44-6.36c-0.72-6.32-1.34-12.66-1.86-19.02
		c-0.52-6.36-1.22-12.66-2.1-18.9c-0.56-4.16-1.16-8.34-1.8-12.54c-0.64-4.2-1.16-8.44-1.56-12.72c-0.4-4.28-0.66-8.62-0.78-13.02
		c-0.12-4.4,0.06-8.92,0.54-13.56c1.2-11.12,4.84-22.44,10.92-33.96c3.04-5.6,6.66-10.96,10.86-16.08
		c4.2-5.12,9.06-9.84,14.58-14.16c14.64-11.44,29.54-20.96,44.7-28.56c15.16-7.6,30.7-13.36,46.62-17.28c3.2-0.8,6.3-1.24,9.3-1.32
		c3-0.08,5.9-0.04,8.7,0.12c4.4,0.32,7.24,1.84,8.52,4.56c1.28,2.72,0.76,6.36-1.56,10.92c-3.68,7.28-7.72,14.46-12.12,21.54
		c-4.4,7.08-9.36,14.06-14.88,20.94c-1.2,1.6-2.48,3-3.84,4.2c-1.36,1.2-2.7,2.16-4.02,2.88c-1.32,0.72-2.58,1.16-3.78,1.32
		c-1.2,0.16-2.2,0.04-3-0.36c-0.88-0.48-1.32-1-1.32-1.56c0-0.56,0.22-1.18,0.66-1.86c0.44-0.68,1.02-1.36,1.74-2.04
		c0.72-0.68,1.36-1.34,1.92-1.98c6-5.84,10.96-11,14.88-15.48c3.92-4.48,7.16-8.5,9.72-12.06c2.56-3.56,4.6-6.72,6.12-9.48
		c1.52-2.76,2.88-5.38,4.08-7.86c0.64-1.28,0.94-2.34,0.9-3.18c-0.04-0.84-0.32-1.56-0.84-2.16c-0.52-0.6-1.22-1.12-2.1-1.56
		c-0.88-0.44-1.88-0.86-3-1.26c-3.76-1.36-7.84-1.7-12.24-1.02c-4.4,0.68-8.96,1.78-13.68,3.3c-11.68,3.76-23.08,8.42-34.2,13.98
		c-11.12,5.56-22.16,12.1-33.12,19.62c-8.64,6-16.1,12.56-22.38,19.68c-6.28,7.12-11.3,14.96-15.06,23.52
		c-2.8,6.48-4.8,12.72-6,18.72c-1.2,6-1.68,11.88-1.44,17.64c0.16,5.04,0.5,10.02,1.02,14.94c0.52,4.92,1.1,9.82,1.74,14.7
		c1.04,8.64,2.12,17.24,3.24,25.8C321.64,251.9,322.76,260.66,323.89,269.62z M314.05,281.86c-8.08,5.52-15.78,11.08-23.1,16.68
		s-14.34,11.56-21.06,17.88c-6.48,6.24-12.68,12.58-18.6,19.02c-5.92,6.44-11.04,13.34-15.36,20.7c-1.04,1.6-1.86,3.24-2.46,4.92
		c-0.6,1.68-1.3,3.36-2.1,5.04c3.52-0.16,7.42-1.1,11.7-2.82c4.28-1.72,8.72-4.02,13.32-6.9c4.6-2.88,9.22-6.22,13.86-10.02
		c4.64-3.8,9.1-7.88,13.38-12.24c4.28-4.36,8.3-8.88,12.06-13.56c3.76-4.68,7.02-9.3,9.78-13.86c2.76-4.56,4.9-8.96,6.42-13.2
		C313.4,289.26,314.12,285.38,314.05,281.86z"/>
</g>
</svg>
